jp\co\kenshu\vlidator\ValidationSampleController.class
jp\co\kenshu\controller\CheckSampleController.class
jp\co\kenshu\form\RadioForm.class
jp\co\kenshu\vlidator\MemoValidator.class
jp\co\kenshu\form\TestForm.class
jp\co\kenshu\form\employee\EmployeeListForm.class
jp\co\kenshu\controller\TestController.class
jp\co\kenshu\service\TestService.class
jp\co\kenshu\form\SelectForm.class
jp\co\kenshu\dto\test\TestDto.class
jp\co\kenshu\controller\SelectSampleController.class
jp\co\kenshu\form\CheckForm.class
jp\co\kenshu\dto\employee\EmployeeDto.class
jp\co\kenshu\vlidator\annotation\Memo.class
jp\co\kenshu\entity\Test.class
jp\co\kenshu\mapper\TestMapper.class
jp\co\kenshu\controller\RadioSampleController.class
